{
  "name": "Get Collumn Index",
  "description": "Allows conversion from excel collumn ID to an index number",
  "main": "Collumn to index.xaml",
  "dependencies": {
    "UiPath.Excel.Activities": "2.10.3-beta.1504331",
    "UiPath.Mail.Activities": "1.10.3-beta.1504335",
    "UiPath.System.Activities": "21.4.0-beta.1503564",
    "UiPath.UIAutomation.Activities": "21.4.0-preview"
  },
  "webServices": [],
  "entitiesStores": [],
  "schemaVersion": "4.0",
  "studioVersion": "21.4.0.0",
  "projectVersion": "1.0.0",
  "runtimeOptions": {
    "autoDispose": false,
    "isPausable": true,
    "requiresUserInteraction": true,
    "supportsPersistence": false,
    "excludedLoggedData": [
      "Private:*",
      "*password*"
    ],
    "executionType": "Workflow",
    "readyForPiP": false,
    "startsInPiP": false
  },
  "designOptions": {
    "projectProfile": "Developement",
    "outputType": "Library",
    "libraryOptions": {
      "includeOriginalXaml": false,
      "privateWorkflows": []
    },
    "processOptions": {
      "ignoredFiles": []
    },
    "fileInfoCollection": [],
    "modernBehavior": false
  },
  "expressionLanguage": "VisualBasic",
  "isTemplate": false,
  "templateProjectData": {},
  "publishData": {},
  "targetFramework": "Legacy"
}